---
http_interactions:
- request:
    method: get
    uri: https://cms.omnystudio.fm/api/search/episodes?published=true
    body:
      encoding: UTF-8
      string: 'null'
    headers:
      Accept:
      - "*/*"
      Accept-Encoding:
      - gzip, deflate
      User-Agent:
      - rest-client/2.0.1 (darwin16.4.0 x86_64) ruby/2.1.0p0
      Content-Type:
      - application/json
      Authorization:
      - Token token=STUB_TOKEN
      Content-Length:
      - '4'
  response:
    status:
      code: 200
      message: OK
    headers:
      Server:
      - Cowboy
      Date:
      - Tue, 03 Apr 2018 19:32:24 GMT
      Connection:
      - keep-alive
      X-Frame-Options:
      - SAMEORIGIN
      X-Xss-Protection:
      - 1; mode=block
      X-Content-Type-Options:
      - nosniff
      Link:
      - "<https://cms.omnystudio.fm/api/search/episodes?page=3&published=true>; rel=\"last\",
        <https://cms.omnystudio.fm/api/search/episodes?page=2&published=true>; rel=\"next\""
      X-Per-Page:
      - '100'
      X-Page:
      - '1'
      X-Total:
      - '247'
      Content-Type:
      - application/json; charset=utf-8
      Etag:
      - W/"15a745291b3d72bc568dd226b26ebf50"
      Cache-Control:
      - max-age=0, private, must-revalidate
      X-Request-Id:
      - 0c864e01-52ba-45ba-8c97-4e3966c9d87f
      X-Runtime:
      - '0.494623'
      Transfer-Encoding:
      - chunked
      Via:
      - 1.1 vegur
    body:
      encoding: UTF-8
      string: "[]"
    http_version:
  recorded_at: Tue, 03 Apr 2018 19:32:25 GMT
recorded_with: VCR 4.0.0
